MHIF IIR Reference - 5 Useful R Programming Tips
…
$hurricane_force_diameter
[1] "integer"

storms |> 
  mutate(
    day = as.character(day),
    wind = as.character(wind),
    pressure = as.character(pressure),
    tropicalstorm_force_diameter = as.character(tropicalstorm_force_diameter),
    hurricane_force_diameter = as.character(hurricane_force_diameter)
)

# A tibble: 11,859 × 13
   name   year month day    hour   lat  long status        categ…¹ wind  press…²
   <chr> <dbl> <dbl> <chr> <dbl> <dbl> <dbl> <chr>         <ord>   <chr> <chr>  
 1 Amy    1975     6 27        0  27.5 -79   tropical dep… -1      25    1013   
 2 Amy    1975     6 27        6  28.5 -79   tropical dep… -1      25    1013   
 3 Amy    1975     6 27       12  29.5 -79   tropical dep… -1      25    1013   
 4 Amy    1975     6 27       18  30.5 -79   tropical dep… -1      25    1013   
 5 Amy    1975     6 28        0  31.5 -78.8 tropical dep… -1      25    1012   
 6 Amy    1975     6 28        6  32.4 -78.7 tropical dep… -1      25    1012   
 7 Amy    1975     6 28       12  33.3 -78   tropical dep… -1      25    1011   
 8 Amy    1975     6 28       18  34   -77   tropical dep… -1      30    1006   
 9 Amy    1975     6 29        0  34.4 -75.8 tropical sto… 0       35    1004   
10 Amy    1975     6 29        6  34   -74.8 tropical sto… 0       40    1002   
# … with 11,849 more rows, 2 more variables:
#   tropicalstorm_force_diameter <chr>, hurricane_force_diameter <chr>, and
#   abbreviated variable names ¹​category, ²​pressure
# ℹ Use `print(n = ...)` to see more rows, and `colnames()` to see all variable names

storms |> 
  mutate(across(where(is.integer), ~as.character(.x)))

# A tibble: 11,859 × 13
   name   year month day    hour   lat  long status        categ…¹ wind  press…²
   <chr> <dbl> <dbl> <chr> <dbl> <dbl> <dbl> <chr>         <ord>   <chr> <chr>  
 1 Amy    1975     6 27        0  27.5 -79   tropical dep… -1      25    1013   
 2 Amy    1975     6 27        6  28.5 -79   tropical dep… -1      25    1013   
 3 Amy    1975     6 27       12  29.5 -79   tropical dep… -1      25    1013   
 4 Amy    1975     6 27       18  30.5 -79   tropical dep… -1      25    1013   
 5 Amy    1975     6 28        0  31.5 -78.8 tropical dep… -1      25    1012   
 6 Amy    1975     6 28        6  32.4 -78.7 tropical dep… -1      25    1012   
 7 Amy    1975     6 28       12  33.3 -78   tropical dep… -1      25    1011   
 8 Amy    1975     6 28       18  34   -77   tropical dep… -1      30    1006   
 9 Amy    1975     6 29        0  34.4 -75.8 tropical sto… 0       35    1004   
10 Amy    1975     6 29        6  34   -74.8 tropical sto… 0       40    1002   
# … with 11,849 more rows, 2 more variables:
#   tropicalstorm_force_diameter <chr>, hurricane_force_diameter <chr>, and
#   abbreviated variable names ¹​category, ²​pressure
# ℹ Use `print(n = ...)` to see more rows, and `colnames()` to see all variable names
…
